[setup]
language=lang_en
setup=1
RadioType=MD
BinFile=C:\Users\Jimi\git\baofeng-dm-x
[MD]
title=MD
version=1.00.66
[modelU]
fdisp0=[400-470MHz]
value0=00000040000000470050998400003001
[modelV]
fdisp0=[136-174MHz]
value0=00006013000040170050990400003001
